record 27 325 2551 721
record 27 695 2551 993
record 27 969 2551 1279
record 27 1241 2551 1655
record 27 1620 2551 2031
record 27 1983 2551 2303
record 27 2247 2551 2579
record 27 2539 2551 2894
record 27 2854 2551 3168
record 27 3115 2551 3430
