record 72 303 2637 601
record 72 581 2637 932
record 72 893 2637 1206
record 72 1164 2637 1482
record 72 1431 2637 1849
record 72 1805 2637 2047
record 72 1994 2637 2320
record 72 2285 2637 2612
record 72 2546 2637 3191
record 72 3117 2637 3495
