record 72 249 2579 663
record 72 645 2579 963
record 72 932 2579 1204
record 72 1184 2579 1496
record 72 1471 2579 1815
record 72 1758 2579 2061
record 72 2042 2579 2477
record 72 2430 2579 2739
record 72 2696 2579 3109
record 72 3047 2579 3353
