record 119 336 2636 596
record 119 581 2636 907
record 119 856 2636 1170
record 119 1118 2636 1550
record 119 1524 2636 1830
record 119 1786 2636 2021
record 119 1996 2636 2319
record 119 2283 2636 2695
record 119 2651 2636 2880
record 119 2845 2636 3291
record 119 3248 2636 3444
