record 67 313 2647 644
record 67 610 2647 909
record 67 857 2647 1198
record 67 1157 2647 1490
record 67 1462 2647 1798
record 67 1773 2647 2189
record 67 2167 2647 2690
record 67 2665 2647 3081
record 67 3051 2647 3416
