record 121 283 2629 568
record 121 514 2629 826
record 121 804 2629 1201
record 121 1151 2629 1471
record 121 1437 2629 1742
record 121 1703 2629 2027
record 121 1990 2629 2385
record 121 2326 2629 2753
record 121 2691 2629 3042
record 121 3009 2629 3323
