record 92 290 2642 510
record 92 487 2642 785
record 92 729 2642 1046
record 92 1021 2642 1349
record 92 1310 2642 1728
record 92 1674 2642 2022
record 92 2008 2642 2211
record 92 2187 2642 2589
record 92 2549 2642 2969
record 92 2938 2642 3345
