record 111 320 2637 616
record 111 574 2637 885
record 111 831 2637 1161
record 111 1113 2637 1424
record 111 1395 2637 1696
record 111 1658 2637 1954
record 111 1900 2637 2245
record 111 2208 2637 2410
record 111 2394 2637 2810
record 111 2761 2637 3097
record 111 3058 2637 3365
