record 63 260 2579 668
record 63 619 2579 847
record 63 1100 2579 1460
record 63 1410 2579 1743
record 63 1689 2579 2008
record 63 1943 2579 2204
record 63 2179 2579 2513
record 63 2453 2579 2808
record 63 2743 2579 3187
record 63 3108 2579 3469
