record 45 261 2596 656
record 45 611 2596 933
record 45 912 2596 1215
record 45 1187 2596 1397
record 45 1351 2596 1637
record 45 1610 2596 1830
record 45 1766 2596 2110
record 45 2093 2596 2304
record 45 2280 2596 2602
record 45 2576 2596 2782
record 45 2763 2596 3159
