record 67 294 2632 513
record 67 480 2632 694
record 67 669 2632 980
record 67 936 2632 1153
record 67 1128 2632 1333
record 67 1300 2632 1615
record 67 1577 2632 1910
record 67 1873 2632 2190
record 67 2163 2632 2484
record 67 2452 2632 2668
record 67 2641 2632 2932
record 67 2909 2632 3309
