record 67 239 2637 606
record 67 563 2637 882
record 67 818 2637 1184
record 67 1126 2637 1451
record 67 1404 2637 1637
record 67 1589 2637 1932
record 67 1878 2637 2322
record 67 2274 2637 2677
record 67 2633 2637 2847
record 67 2815 2637 3138
record 67 3123 2637 3437
