record 92 287 2642 707
record 92 666 2642 1078
record 92 985 2642 1347
record 92 1324 2642 1641
record 92 1613 2642 2053
record 92 1998 2642 2535
record 92 2462 2642 2820
record 92 2763 2642 3006
record 92 2966 2642 3392
