record 72 175 2579 640
record 72 608 2579 935
record 72 906 2579 1240
record 72 1187 2579 1530
record 72 1473 2579 1805
record 72 1755 2579 2165
record 72 2120 2579 2428
record 72 2387 2579 2692
record 72 2661 2579 2951
record 72 2930 2579 3238
record 72 3171 2579 3487
